simulation/qsim/FSM-Moore.msim.vcd
$comment
	File created using the following command:
		vcd file FSM-Moore.msim.vcd -direction
$end
$date
	Fri Nov 17 17:46:18 2023
$end
$version
	ModelSim Version 10.5b
$end
$timescale
	1ps
$end

$scope module maquina_estados_moore_vhd_vec_tst $end
$var wire 1 ! clk $end
$var wire 1 " entrada $end
$var wire 1 # reset $end
$var wire 1 $ saida $end

$scope module i1 $end
$var wire 1 % gnd $end
$var wire 1 & vcc $end
$var wire 1 ' unknown $end
$var wire 1 ( devoe $end
$var wire 1 ) devclrn $end
$var wire 1 * devpor $end
$var wire 1 + ww_devoe $end
$var wire 1 , ww_devclrn $end
$var wire 1 - ww_devpor $end
$var wire 1 . ww_clk $end
$var wire 1 / ww_reset $end
$var wire 1 0 ww_entrada $end
$var wire 1 1 ww_saida $end
$var wire 1 2 \saida~output_o\ $end
$var wire 1 3 \clk~input_o\ $end
$var wire 1 4 \entrada~input_o\ $end
$var wire 1 5 \proximo_estado.B~0_combout\ $end
$var wire 1 6 \reset~input_o\ $end
$var wire 1 7 \estado_atual.B~q\ $end
$var wire 1 8 \proximo_estado.C~0_combout\ $end
$var wire 1 9 \estado_atual.C~q\ $end
$var wire 1 : \saida~reg0_q\ $end
$var wire 1 ; \ALT_INV_estado_atual.B~q\ $end
$var wire 1 < \ALT_INV_entrada~input_o\ $end
$var wire 1 = \ALT_INV_reset~input_o\ $end
$upscope $end
$upscope $end
$enddefinitions $end
#0
$dumpvars
0!
0"
1#
0$
0%
1&
x'
1(
1)
1*
1+
1,
1-
0.
1/
00
01
02
03
04
05
16
07
08
09
0:
1;
1<
0=
$end
#10000
1!
0#
1.
0/
06
13
1=
#20000
0!
1"
0.
10
14
03
0<
15
#30000
1!
1.
13
17
0;
05
18
#40000
0!
0"
0.
00
04
03
1<
08
#50000
1!
1.
13
07
1;
#60000
0!
1"
0.
10
14
03
0<
15
#70000
1!
1.
13
17
0;
05
18
#80000
0!
0"
0.
00
04
03
1<
08
#90000
1!
1.
13
07
1;
#100000
0!
1"
0.
10
14
03
0<
15
#110000
1!
1.
13
17
0;
05
18
#120000
0!
0.
03
#130000
1!
1.
13
07
19
1;
15
08
#140000
0!
0"
0.
00
04
03
1<
05
#150000
1!
1.
13
09
1:
12
11
1$
#160000
0!
1"
0.
10
14
03
0<
15
#170000
1!
1.
13
17
0:
0;
05
18
02
01
0$
#180000
0!
0.
03
#190000
1!
1.
13
07
19
1;
15
08
#200000
0!
0.
03
#210000
1!
1.
13
17
09
1:
0;
05
18
12
11
1$
#220000
0!
0"
0.
00
04
03
1<
08
#230000
1!
1.
13
07
0:
1;
02
01
0$
#240000
0!
1"
0.
10
14
03
0<
15
#250000
1!
1.
13
17
0;
05
18
#260000
0!
0.
03
#270000
1!
1.
13
07
19
1;
15
08
#280000
0!
0.
03
#290000
1!
1.
13
17
09
1:
0;
05
18
12
11
1$
#300000
0!
0.
03
#310000
1!
1.
13
07
19
0:
1;
15
08
02
01
0$
#320000
0!
0.
03
#330000
1!
1.
13
17
09
1:
0;
05
18
12
11
1$
#340000
0!
0"
0.
00
04
03
1<
08
#350000
1!
1.
13
07
0:
1;
02
01
0$
#360000
0!
1"
0.
10
14
03
0<
15
#370000
1!
1.
13
17
0;
05
18
#380000
0!
0.
03
#390000
1!
1.
13
07
19
1;
15
08
#400000
0!
1#
0.
1/
16
03
0=
09
#410000
1!
1.
13
#420000
0!
0#
0.
0/
06
03
1=
#430000
1!
1.
13
17
0;
05
18
#440000
0!
0.
03
#450000
1!
1.
13
07
19
1;
15
08
#460000
0!
0"
0.
00
04
03
1<
05
#470000
1!
1.
13
09
1:
12
11
1$
#480000
0!
0.
03
#490000
1!
1.
13
0:
02
01
0$
#500000
0!
0.
03
#510000
1!
1.
13
#520000
0!
0.
03
#530000
1!
1.
13
#540000
0!
0.
03
#550000
1!
1.
13
#560000
0!
0.
03
#570000
1!
1.
13
#580000
0!
0.
03
#590000
1!
1.
13
#600000
0!
0.
03
#610000
1!
1.
13
#620000
0!
0.
03
#630000
1!
1.
13
#640000
0!
0.
03
#650000
1!
1.
13
#660000
0!
0.
03
#670000
1!
1.
13
#680000
0!
0.
03
#690000
1!
1.
13
#700000
0!
0.
03
#710000
1!
1.
13
#720000
0!
0.
03
#730000
1!
1.
13
#740000
0!
0.
03
#750000
1!
1.
13
#760000
0!
0.
03
#770000
1!
1.
13
#780000
0!
0.
03
#790000
1!
1.
13
#800000
0!
0.
03
#810000
1!
1.
13
#820000
0!
0.
03
#830000
1!
1.
13
#840000
0!
0.
03
#850000
1!
1.
13
#860000
0!
0.
03
#870000
1!
1.
13
#880000
0!
0.
03
#890000
1!
1.
13
#900000
0!
0.
03
#910000
1!
1.
13
#920000
0!
0.
03
#930000
1!
1.
13
#940000
0!
0.
03
#950000
1!
1.
13
#960000
0!
0.
03
#970000
1!
1.
13
#980000
0!
0.
03
#990000
1!
1.
13
