simulation/qsim/FSM-Moore.msim.vcd
$comment
	File created using the following command:
		vcd file FSM-Moore.msim.vcd -direction
$end
$date
	Thu Nov 16 11:11:41 2023
$end
$version
	ModelSim Version 10.5b
$end
$timescale
	1ps
$end

$scope module maquina_estados_moore_vhd_vec_tst $end
$var wire 1 ! clk $end
$var wire 1 " entrada $end
$var wire 1 # reset $end
$var wire 1 $ saida $end

$scope module i1 $end
$var wire 1 % gnd $end
$var wire 1 & vcc $end
$var wire 1 ' unknown $end
$var wire 1 ( devoe $end
$var wire 1 ) devclrn $end
$var wire 1 * devpor $end
$var wire 1 + ww_devoe $end
$var wire 1 , ww_devclrn $end
$var wire 1 - ww_devpor $end
$var wire 1 . ww_clk $end
$var wire 1 / ww_reset $end
$var wire 1 0 ww_entrada $end
$var wire 1 1 ww_saida $end
$var wire 1 2 \saida~output_o\ $end
$var wire 1 3 \clk~input_o\ $end
$var wire 1 4 \entrada~input_o\ $end
$var wire 1 5 \reset~input_o\ $end
$var wire 1 6 \estado_atual.A~q\ $end
$var wire 1 7 \proximo_estado.C~0_combout\ $end
$var wire 1 8 \estado_atual.C~q\ $end
$var wire 1 9 \ALT_INV_reset~input_o\ $end
$var wire 1 : \ALT_INV_entrada~input_o\ $end
$var wire 1 ; \ALT_INV_estado_atual.A~q\ $end
$upscope $end
$upscope $end
$enddefinitions $end
#0
$dumpvars
0!
0"
1#
0$
0%
1&
x'
1(
1)
1*
1+
1,
1-
0.
1/
00
01
02
03
04
15
06
07
08
09
1:
1;
$end
#10000
1!
0#
1.
0/
05
13
19
#20000
0!
1"
0.
10
14
03
0:
#30000
1!
1.
13
16
0;
17
#40000
0!
0"
0.
00
04
03
1:
07
#50000
1!
1.
13
06
1;
#60000
0!
1"
0.
10
14
03
0:
#70000
1!
1.
13
16
0;
17
#80000
0!
0"
0.
00
04
03
1:
07
#90000
1!
1.
13
06
1;
#100000
0!
1"
0.
10
14
03
0:
#110000
1!
1.
13
16
0;
17
#120000
0!
0.
03
#130000
1!
1.
13
18
12
11
1$
#140000
0!
0"
0.
00
04
03
1:
07
#150000
1!
1.
13
06
08
1;
02
01
0$
#160000
0!
1"
0.
10
14
03
0:
#170000
1!
1.
13
16
0;
17
#180000
0!
0.
03
#190000
1!
1.
13
18
12
11
1$
#200000
0!
0.
03
#210000
1!
1.
13
#220000
0!
0"
0.
00
04
03
1:
07
#230000
1!
1.
13
06
08
1;
02
01
0$
#240000
0!
1"
0.
10
14
03
0:
#250000
1!
1.
13
16
0;
17
#260000
0!
0.
03
#270000
1!
1.
13
18
12
11
1$
#280000
0!
0.
03
#290000
1!
1.
13
#300000
0!
0.
03
#310000
1!
1.
13
#320000
0!
0.
03
#330000
1!
1.
13
#340000
0!
0"
0.
00
04
03
1:
07
#350000
1!
1.
13
06
08
1;
02
01
0$
#360000
0!
1"
0.
10
14
03
0:
#370000
1!
1.
13
16
0;
17
#380000
0!
0.
03
#390000
1!
1.
13
18
12
11
1$
#400000
0!
1#
0.
1/
15
03
09
06
08
1;
07
02
01
0$
#410000
1!
1.
13
#420000
0!
0#
0.
0/
05
03
19
#430000
1!
1.
13
16
0;
17
#440000
0!
0.
03
#450000
1!
1.
13
18
12
11
1$
#460000
0!
0"
0.
00
04
03
1:
07
#470000
1!
1.
13
06
08
1;
02
01
0$
#480000
0!
0.
03
#490000
1!
1.
13
#500000
0!
0.
03
#510000
1!
1.
13
#520000
0!
0.
03
#530000
1!
1.
13
#540000
0!
0.
03
#550000
1!
1.
13
#560000
0!
0.
03
#570000
1!
1.
13
#580000
0!
0.
03
#590000
1!
1.
13
#600000
0!
0.
03
#610000
1!
1.
13
#620000
0!
0.
03
#630000
1!
1.
13
#640000
0!
0.
03
#650000
1!
1.
13
#660000
0!
0.
03
#670000
1!
1.
13
#680000
0!
0.
03
#690000
1!
1.
13
#700000
0!
0.
03
#710000
1!
1.
13
#720000
0!
0.
03
#730000
1!
1.
13
#740000
0!
0.
03
#750000
1!
1.
13
#760000
0!
0.
03
#770000
1!
1.
13
#780000
0!
0.
03
#790000
1!
1.
13
#800000
0!
0.
03
#810000
1!
1.
13
#820000
0!
0.
03
#830000
1!
1.
13
#840000
0!
0.
03
#850000
1!
1.
13
#860000
0!
0.
03
#870000
1!
1.
13
#880000
0!
0.
03
#890000
1!
1.
13
#900000
0!
0.
03
#910000
1!
1.
13
#920000
0!
0.
03
#930000
1!
1.
13
#940000
0!
0.
03
#950000
1!
1.
13
#960000
0!
0.
03
#970000
1!
1.
13
#980000
0!
0.
03
#990000
1!
1.
13
