simulation/qsim/meally.msim.vcd
$comment
	File created using the following command:
		vcd file meally.msim.vcd -direction
$end
$date
	Fri Nov 17 17:21:30 2023
$end
$version
	ModelSim Version 10.5b
$end
$timescale
	1ps
$end

$scope module maquina_estados_mealy_vhd_vec_tst $end
$var wire 1 ! clk $end
$var wire 1 " entrada $end
$var wire 1 # reset $end
$var wire 1 $ saida $end

$scope module i1 $end
$var wire 1 % gnd $end
$var wire 1 & vcc $end
$var wire 1 ' unknown $end
$var wire 1 ( devoe $end
$var wire 1 ) devclrn $end
$var wire 1 * devpor $end
$var wire 1 + ww_devoe $end
$var wire 1 , ww_devclrn $end
$var wire 1 - ww_devpor $end
$var wire 1 . ww_clk $end
$var wire 1 / ww_reset $end
$var wire 1 0 ww_entrada $end
$var wire 1 1 ww_saida $end
$var wire 1 2 \saida~output_o\ $end
$var wire 1 3 \entrada~input_o\ $end
$var wire 1 4 \clk~input_o\ $end
$var wire 1 5 \reset~input_o\ $end
$var wire 1 6 \estado_atual.A~q\ $end
$var wire 1 7 \saida~1_combout\ $end
$var wire 1 8 \ALT_INV_reset~input_o\ $end
$upscope $end
$upscope $end
$enddefinitions $end
#0
$dumpvars
0!
0"
1#
0$
0%
1&
x'
1(
1)
1*
1+
1,
1-
0.
1/
00
01
02
03
04
15
06
07
08
$end
#10000
0#
0/
05
18
#20000
1"
10
13
#40000
1!
1.
14
16
17
12
11
1$
#60000
0"
00
03
07
02
01
0$
#80000
1"
0!
10
0.
04
13
17
12
11
1$
#100000
0"
00
03
07
02
01
0$
#110000
1"
10
13
17
12
11
1$
#120000
1!
1.
14
#160000
0!
0.
04
#180000
0"
00
03
07
02
01
0$
#200000
1!
1.
14
06
#220000
1"
10
13
#240000
0!
0.
04
#280000
1!
1.
14
16
17
12
11
1$
#320000
0!
0.
04
#360000
1!
1.
14
#400000
0!
0.
04
#440000
1!
1.
14
#480000
0!
0.
04
#490000
0"
00
03
07
02
01
0$
#520000
1!
1.
14
06
#560000
0!
0.
04
#600000
1!
1.
14
#640000
0!
0.
04
#680000
1!
1.
14
#720000
0!
0.
04
#760000
1!
1.
14
#800000
0!
0.
04
#840000
1!
1.
14
#880000
0!
0.
04
#920000
1!
1.
14
#960000
0!
0.
04
